{
    "options_entries_reset": {
        "message": "Återställ standardinställningar",
        "description": "Options page link for loading the entries defaults"
    },
    "options_entries_reset_undo_text": {
        "message": "Standardinställningar återställda",
        "description": "Text of popup that is shown after the reset link has been clicked"
    },
    "options_entries_reset_undo_button": {
        "message": "Ångra återställning",
        "description": "Label of button for undoing a reset (displayed below the text that asserts that the options have just been reset)"
    },
    "extension_description": {
        "message": "Gör det enkelt att byta webbläsarens User-Agent identifiering",
        "description": "Extension description"
    },
    "options_entries_switch_text": {
        "message": "Byt till textläge",
        "description": "Options page link for switching from table to text mode"
    },
    "options_entries_switch_table": {
        "message": "Byt till tabellläge",
        "description": "Options page link for switching from text to table mode"
    },
    "options_entries_heading_enabled": {
        "message": "Aktiverad",
        "description": "Options page table editor heading for the column allowing to enabled or disable items"
    },
    "options_entries_heading_label": {
        "message": "Etikett",
        "description": "Options page table editor heading for the column with user-facing User-Agent-String labels"
    },
    "options_entries_heading_category": {
        "message": "Kategori",
        "description": "Options page table editor heading for the column with general category of the given User-Agent-String"
    },
    "options_entries_heading_string": {
        "message": "Sträng",
        "description": "Options page table editor heading for the column with the actual server-reported User-Agent-Strings"
    },
    "useragent_category_desktop": {
        "message": "Skrivbordet",
        "description": "Default category label for browsers on desktop devices"
    },
    "useragent_category_mobile": {
        "message": "Mobil",
        "description": "Default category label for browsers on mobile devices"
    },
    "icon_title_random": {
        "message": "Slumpmässigt läge",
        "description": "Text displayed in the browser action icon tooltip when the User-Agent header is choosen at random"
    },
    "icon_title_enabled": {
        "message": "Aktiverad",
        "description": "Text displayed in the browser action icon tooltip when request processing is being done because of the global setting"
    }
}
